<?xml version="1.0" encoding="utf-8"?>
<!-- Generator: Adobe Illustrator 16.0.0, SVG Export Plug-In . SVG Version: 6.00 Build 0)  -->
<!DOCTYPE svg PUBLIC "-//W3C//DTD SVG 1.1//EN" "http://www.w3.org/Graphics/SVG/1.1/DTD/svg11.dtd">
<svg version="1.1" id="Layer_1" xmlns="http://www.w3.org/2000/svg" xmlns:xlink="http://www.w3.org/1999/xlink" x="0px" y="0px"
	 width="13px" height="14.339px" viewBox="0 0 13 14.339" enable-background="new 0 0 13 14.339" xml:space="preserve">
<path d="M9,11.267v1.023h2v-1.023H9z M6,11.267v1.023h2v-1.023H6z M9,9.218v1.024h2V9.218H9z M6,9.218v1.024h2V9.218H6z M9,7.169
	v1.024h2V7.169H9z M6,7.169v1.024h2V7.169H6z M9,5.121v1.024h2V5.121H9z M6,5.121v1.024h2V5.121H6z M5.5,4.097h6
	c0.281,0,0.5,0.224,0.5,0.512v8.706H5V4.609C5,4.321,5.219,4.097,5.5,4.097z M2,2.048v1.024h2V2.048H2z M1.5,1.024h6
	c0.281,0,0.5,0.224,0.5,0.512v1.537H7V2.048H5v1.024h0.5C4.676,3.073,4,3.765,4,4.609V4.097H2v1.024h2v1.024H2v1.024h2v1.024H2
	v1.024h2v1.024H1V1.536C1,1.248,1.219,1.024,1.5,1.024z M1.5,0C0.676,0,0,0.692,0,1.536v9.73h4v3.072h9v-9.73
	c0-0.844-0.676-1.536-1.5-1.536H9V1.536C9,0.692,8.324,0,7.5,0H1.5z"/>
</svg>
